"Fecha","Hora","Estacion","Altura","Densidad","fecha_Hora"
"1","2021-06-07","14:55:00","B1A",1.11,"4000",2021-06-07 14:55:00
"2","2021-06-07","8:53:00","B1B",-0.79,"0",2021-06-07 08:53:00
"3","2021-06-07","15:27:00","B2A",0.94,"5000",2021-06-07 15:27:00
"4","2021-06-07","9:36:00","B2B",-0.57,"333",2021-06-07 09:36:00
"5","2021-06-07","15:12:00","B3A",1.06,"667",2021-06-07 15:12:00
"6","2021-06-07","9:20:00","B3B",-0.64,"0",2021-06-07 09:20:00
"7","2021-06-07","14:42:00","B4A",1.14,"667",2021-06-07 14:42:00
"8","2021-06-07","8:26:00","B4B",-0.9,"333",2021-06-07 08:26:00
"9","2021-06-07","14:09:00","B5A",1.23,"14333",2021-06-07 14:09:00
"10","2021-06-07","8:06:00","B5B",-0.93,"333",2021-06-07 08:06:00
"11","2021-06-07","13:57:00","B6A",1.23,"2333",2021-06-07 13:57:00
"12","2021-06-07","7:40:00","B6B",-0.88,"0",2021-06-07 07:40:00
"13","2021-06-07","13:39:00","B7A",1.19,"333",2021-06-07 13:39:00
"14","2021-06-07","7:15:00","B7B",-0.88,"0",2021-06-07 07:15:00
"15","2021-06-07","15:42:00","B8A",0.88,"5667",2021-06-07 15:42:00
"16","2021-06-07","9:53:00","B8B",-0.42,"0",2021-06-07 09:53:00
"17","2021-06-08","15:18:00","M1A",1.21,"2333",2021-06-08 15:18:00
"18","2021-06-08","6:56:00","M1B",-0.65,"0",2021-06-08 06:56:00
"19","2021-06-08","14:16:00","M2A",1.19,"2333",2021-06-08 14:16:00
"20","2021-06-08","9:37:00","M2B",-0.87,"1667",2021-06-08 09:37:00
"21","2021-06-08","14:36:00","M3A",1.21,"1000",2021-06-08 14:36:00
"22","2021-06-08","10:13:00","M3B",-0.66,"0",2021-06-08 10:13:00
"23","2021-06-08","14:09:00","M4A",1.15,"1000",2021-06-08 14:09:00
"24","2021-06-08","9:06:00","M4B",-0.97,"1000",2021-06-08 09:06:00
"25","2021-06-08","14:57:00","M5A",1.25,"1333",2021-06-08 14:57:00
"26","2021-06-08","8:37:00","M5B",-1.02,"333",2021-06-08 08:37:00
"27","2021-06-08","13:26:00","M6A",0.97,"3333",2021-06-08 13:26:00
"28","2021-06-08","7:45:00","M6B",-0.87,"2667",2021-06-08 07:45:00
